<?xml version="1.0" encoding="UTF-8"?>
<svg width="260px" height="50px" viewBox="0 0 260 50" version="1.1" xmlns="http://www.w3.org/2000/svg" xmlns:xlink="http://www.w3.org/1999/xlink">
    <!-- Generator: Sketch 46.2 (44496) - http://www.bohemiancoding.com/sketch -->
    <title>demo-mode@1,5x</title>
    <desc>Created with Sketch.</desc>
    <defs></defs>
    <g id="Design" stroke="none" stroke-width="1" fill="none" fill-rule="evenodd">
        <g id="00.-02---Log-in-Copy" transform="translate(-57.000000, -509.000000)">
            <g id="demo-mode" transform="translate(57.000000, 509.000000)">
                <rect id="Background" stroke="#FFFFFF" x="0.5" y="0.5" width="259" height="49" rx="24.5"></rect>
                <text id="Change-Status" font-family="Roboto-Medium, Roboto" font-size="11" font-weight="400" letter-spacing="0.916666627" fill="#FFFFFF">
                    <tspan x="90.8601077" y="29.2352941">Demo account</tspan>
                </text>
            </g>
        </g>
    </g>
</svg>