<?xml version="1.0" encoding="UTF-8"?>
<svg width="261px" height="70px" viewBox="0 0 261 70" version="1.1" xmlns="http://www.w3.org/2000/svg" xmlns:xlink="http://www.w3.org/1999/xlink">
    <!-- Generator: Sketch 46.2 (44496) - http://www.bohemiancoding.com/sketch -->
    <title>signin-with-salesforce@1,5x</title>
    <desc>Created with Sketch.</desc>
    <defs>
        <linearGradient x1="100%" y1="0%" x2="0%" y2="100%" id="linearGradient-1">
            <stop stop-color="#FF6F6F" offset="0%"></stop>
            <stop stop-color="#FCA53E" offset="100%"></stop>
        </linearGradient>
    </defs>
    <g id="Design" stroke="none" stroke-width="1" fill="none" fill-rule="evenodd">
        <g id="00.-02---Log-in-Copy" transform="translate(-57.000000, -419.000000)">
            <g id="signin-with-salesforce" transform="translate(57.466667, 419.000000)">
                <rect id="Background" fill="url(#linearGradient-1)" x="2.84217094e-14" y="0" width="260" height="70" rx="35"></rect>
                <text id="Title" font-family="Roboto-Medium, Roboto" font-size="13" font-weight="400" letter-spacing="1.08333337" fill="#FFFFFF">
                    <tspan x="55.8950028" y="39">Sign in with saleforce</tspan>
                </text>
            </g>
        </g>
    </g>
</svg>