{
  "FIELDBUDDY__Installed_Product__c": {
    "fields": [
      "FIELDBUDDY__Location__c"
    ]
  },
  "FIELDBUDDY__Work_Order__c": {
    "fields": [
      "Name",
      "OwnerId",
      "FIELDBUDDY__Location__c",
      "FIELDBUDDY__Template__c",
      "FIELDBUDDY__Service_Request__c",
      "T_Start_Time__c",
      "FIELDBUDDY__Status__c",
      "FIELDBUDDY__Closure_Status__c",
      "FIELDBUDDY__Type__c",
      "FIELDBUDDY__Comments_from_Technician__c",
      "FIELDBUDDY__Comments_from_Backoffice__c"
    ]
  },
  "FIELDBUDDY__Service_Request__c": {
    "fields": [
      "Name",
      "FIELDBUDDY__Installed_Product__c",
      "FIELDBUDDY__Subject__c",
      "FIELDBUDDY__Description__c"
    ]
  }
}