<?xml version="1.0" encoding="UTF-8"?>
<svg width="120px" height="36px" viewBox="0 0 120 36" version="1.1" xmlns="http://www.w3.org/2000/svg" xmlns:xlink="http://www.w3.org/1999/xlink">
    <!-- Generator: Sketch 49.3 (51167) - http://www.bohemiancoding.com/sketch -->
    <title>hard-refreshing-button@1,5x</title>
    <desc>Created with Sketch.</desc>
    <defs>
        <linearGradient x1="100%" y1="0%" x2="0%" y2="100%" id="linearGradient-1">
            <stop stop-color="#FF6F6F" offset="0%"></stop>
            <stop stop-color="#FCA53E" offset="100%"></stop>
        </linearGradient>
        <linearGradient x1="50%" y1="0%" x2="50%" y2="100%" id="linearGradient-2">
            <stop stop-color="#B4EC51" offset="0%"></stop>
            <stop stop-color="#78BD37" offset="53.0348423%"></stop>
            <stop stop-color="#78BD37" offset="53.0348423%"></stop>
            <stop stop-color="#429321" offset="100%"></stop>
        </linearGradient>
    </defs>
    <g id="hard-refreshing-button" stroke="none" stroke-width="1" fill="none" fill-rule="evenodd">
        <g id="Button-Size">
            <rect id="Rectangle-2" fill="url(#linearGradient-1)" x="0" y="0" width="120" height="36" rx="18"></rect>
            <text id="Name" font-family="Roboto-Medium, Roboto" font-size="11" font-weight="400" letter-spacing="0.9166667" fill="#FFFFFF">
                <tspan x="33.2918293" y="22"> DEFAULT</tspan>
            </text>
        </g>
        <g id="Button-Size-Copy">
            <rect id="Rectangle-2" fill="url(#linearGradient-1)" x="0" y="0" width="120" height="36" rx="18"></rect>
            <text id="Name" font-family="Roboto-Medium, Roboto" font-size="11" font-weight="400" letter-spacing="0.9166667" fill="#FFFFFF">
                <tspan x="33.2918293" y="22"> DEFAULT</tspan>
            </text>
        </g>
        <g id="Button-Size-Copy">
            <rect id="Rectangle-2" fill="url(#linearGradient-2)" x="0" y="0" width="120" height="36" rx="18"></rect>
            <text id="Name" font-family="Roboto-Medium, Roboto" font-size="11" font-weight="400" letter-spacing="0.9166667" fill="#FFFFFF">
                <tspan x="3.25309218" y="22"> HARD REFRESHING</tspan>
            </text>
        </g>
    </g>
</svg>