<?xml version="1.0" encoding="UTF-8"?>
<svg width="361px" height="46px" viewBox="0 0 361 46" version="1.1" xmlns="http://www.w3.org/2000/svg" xmlns:xlink="http://www.w3.org/1999/xlink">
    <!-- Generator: Sketch 48.2 (47327) - http://www.bohemiancoding.com/sketch -->
    <title>add-new-service@1,5x</title>
    <desc>Created with Sketch.</desc>
    <defs>
        <path d="M20,0 L337,0 C348.045695,-2.02906125e-15 357,8.954305 357,20 L357,20 C357,31.045695 348.045695,40 337,40 L20,40 C8.954305,40 1.3527075e-15,31.045695 0,20 L0,20 C-1.3527075e-15,8.954305 8.954305,2.02906125e-15 20,0 Z" id="path-1"></path>
        <filter x="-1.7%" y="-10.0%" width="103.4%" height="130.0%" filterUnits="objectBoundingBox" id="filter-2">
            <feOffset dx="0" dy="2" in="SourceAlpha" result="shadowOffsetOuter1"></feOffset>
            <feGaussianBlur stdDeviation="1" in="shadowOffsetOuter1" result="shadowBlurOuter1"></feGaussianBlur>
            <feColorMatrix values="0 0 0 0 0.819607843   0 0 0 0 0.819607843   0 0 0 0 0.819607843  0 0 0 0.24 0" type="matrix" in="shadowBlurOuter1" result="shadowMatrixOuter1"></feColorMatrix>
            <feOffset dx="0" dy="0" in="SourceAlpha" result="shadowOffsetOuter2"></feOffset>
            <feGaussianBlur stdDeviation="1" in="shadowOffsetOuter2" result="shadowBlurOuter2"></feGaussianBlur>
            <feColorMatrix values="0 0 0 0 0   0 0 0 0 0   0 0 0 0 0  0 0 0 0.12 0" type="matrix" in="shadowBlurOuter2" result="shadowMatrixOuter2"></feColorMatrix>
            <feMerge>
                <feMergeNode in="shadowMatrixOuter1"></feMergeNode>
                <feMergeNode in="shadowMatrixOuter2"></feMergeNode>
            </feMerge>
        </filter>
    </defs>
    <g id="03.-06---Assigment-Activiteiten-full" stroke="none" stroke-width="1" fill="none" fill-rule="evenodd" transform="translate(-7.000000, -404.000000)">
        <g id="Added-new-services" transform="translate(9.000000, 129.000000)">
            <g id="add-new-service" transform="translate(0.000000, 277.000000)">
                <g id="Rectangle-5">
                    <use fill="black" fill-opacity="1" filter="url(#filter-2)" xlink:href="#path-1"></use>
                    <use fill="#00AAFF" fill-rule="evenodd" xlink:href="#path-1"></use>
                </g>
                <text id="Footer-Copy-2" font-family="Roboto-Medium, Roboto" font-size="11" font-weight="400" letter-spacing="0.916666627" fill="#FFFFFF">
                    <tspan x="128.853679" y="24">+add new service</tspan>
                </text>
            </g>
        </g>
    </g>
</svg>