<?xml version="1.0" encoding="UTF-8"?>
<svg width="129px" height="42px" viewBox="0 0 129 42" version="1.1" xmlns="http://www.w3.org/2000/svg" xmlns:xlink="http://www.w3.org/1999/xlink">
    <!-- Generator: Sketch 47.1 (45422) - http://www.bohemiancoding.com/sketch -->
    <title>save-changes@1,5x</title>
    <desc>Created with Sketch.</desc>
    <defs>
        <linearGradient x1="100%" y1="0%" x2="0%" y2="100%" id="linearGradient-1">
            <stop stop-color="#FF6F6F" offset="0%"></stop>
            <stop stop-color="#FCA53E" offset="100%"></stop>
        </linearGradient>
        <rect id="path-2" x="0" y="0" width="125" height="36" rx="18"></rect>
        <filter x="-4.8%" y="-11.1%" width="109.6%" height="133.3%" filterUnits="objectBoundingBox" id="filter-3">
            <feOffset dx="0" dy="2" in="SourceAlpha" result="shadowOffsetOuter1"></feOffset>
            <feGaussianBlur stdDeviation="1" in="shadowOffsetOuter1" result="shadowBlurOuter1"></feGaussianBlur>
            <feColorMatrix values="0 0 0 0 0.819607843   0 0 0 0 0.819607843   0 0 0 0 0.819607843  0 0 0 0.24 0" type="matrix" in="shadowBlurOuter1" result="shadowMatrixOuter1"></feColorMatrix>
            <feOffset dx="0" dy="0" in="SourceAlpha" result="shadowOffsetOuter2"></feOffset>
            <feGaussianBlur stdDeviation="1" in="shadowOffsetOuter2" result="shadowBlurOuter2"></feGaussianBlur>
            <feColorMatrix values="0 0 0 0 0   0 0 0 0 0   0 0 0 0 0  0 0 0 0.12 0" type="matrix" in="shadowBlurOuter2" result="shadowMatrixOuter2"></feColorMatrix>
            <feMerge>
                <feMergeNode in="shadowMatrixOuter1"></feMergeNode>
                <feMergeNode in="shadowMatrixOuter2"></feMergeNode>
            </feMerge>
        </filter>
    </defs>
    <g id="Design" stroke="none" stroke-width="1" fill="none" fill-rule="evenodd">
        <g id="03.-01.-03.-Assignment-text-edit" transform="translate(-239.000000, -708.000000)">
            <g id="CONTENT" transform="translate(-21.000000, 81.000000)">
                <g id="Installatie" transform="translate(0.000000, 629.000000)">
                    <g id="Icon" transform="translate(31.000000, 0.000000)">
                        <g id="save-changes" transform="translate(231.000000, 0.000000)">
                            <g id="Rectangle-2">
                                <use fill="black" fill-opacity="1" filter="url(#filter-3)" xlink:href="#path-2"></use>
                                <use fill="url(#linearGradient-1)" fill-rule="evenodd" xlink:href="#path-2"></use>
                            </g>
                            <text id="Name" font-family="Roboto-Regular, Roboto" font-size="14" font-weight="normal" letter-spacing="-0.337647021" fill="#FFFFFF">
                                <tspan x="27.5024446" y="23">Save Changes</tspan>
                            </text>
                            <text id="Footer-Copy-5" font-family="Ionicons" font-size="14" font-weight="400" line-spacing="20" fill="#FFFFFF">
                                <tspan x="12.6875" y="18"></tspan>
                            </text>
                        </g>
                    </g>
                </g>
            </g>
        </g>
    </g>
</svg>