<?xml version="1.0" encoding="UTF-8"?>
<svg width="34px" height="34px" viewBox="0 0 34 34" version="1.1" xmlns="http://www.w3.org/2000/svg" xmlns:xlink="http://www.w3.org/1999/xlink">
    <!-- Generator: Sketch 47.1 (45422) - http://www.bohemiancoding.com/sketch -->
    <title>status-down-inactive@1,5x</title>
    <desc>Created with Sketch.</desc>
    <defs></defs>
    <g id="Symbols" stroke="none" stroke-width="1" fill="none" fill-rule="evenodd" opacity="0.200000003">
        <g id="Sticky-menu" transform="translate(-98.000000, -51.000000)">
            <g id="Group-2">
                <g transform="translate(10.000000, 50.000000)">
                    <g id="status-down-inactive" transform="translate(105.000000, 18.000000) scale(-1, 1) translate(-105.000000, -18.000000) translate(88.000000, 1.000000)">
                        <rect id="Rectangle-4" stroke="#FFFFFF" x="0.5" y="0.5" width="33" height="33" rx="16.5"></rect>
                        <text id="Name" transform="translate(17.000000, 18.000000) scale(-1, 1) translate(-17.000000, -18.000000) " font-family="Ionicons" font-size="11" font-weight="400" letter-spacing="0.916666627" fill="#FFFFFF">
                            <tspan x="12.8678386" y="22"></tspan>
                        </text>
                    </g>
                </g>
            </g>
        </g>
    </g>
</svg>