<?xml version="1.0" encoding="UTF-8"?>
<svg width="196px" height="25px" viewBox="0 0 196 25" version="1.1" xmlns="http://www.w3.org/2000/svg" xmlns:xlink="http://www.w3.org/1999/xlink">
    <!-- Generator: Sketch 46.2 (44496) - http://www.bohemiancoding.com/sketch -->
    <title>group-by-title@1,5x</title>
    <desc>Created with Sketch.</desc>
    <defs>
        <linearGradient x1="100%" y1="0%" x2="0%" y2="100%" id="linearGradient-1">
            <stop stop-color="#FF6F6F" offset="0%"></stop>
            <stop stop-color="#FCA53E" offset="100%"></stop>
        </linearGradient>
    </defs>
    <g id="Design" stroke="none" stroke-width="1" fill="none" fill-rule="evenodd">
        <g id="01.-02.-Deze-week" transform="translate(-89.000000, -190.000000)">
            <g id="CONTENT" transform="translate(0.000000, 128.000000)">
                <g id="Days" transform="translate(0.000000, 62.000000)">
                    <g id="Monday">
                        <g id="Day-indicator">
                            <g id="expanded" transform="translate(89.000000, 0.000000)">
                                <g id="Group-3">
                                    <g id="group-by-title">
                                        <path d="M12.5,0 L181.5,2.16840434e-19 L181.5,-2.84217094e-14 C188.403559,-1.74267068e-14 194,5.59644063 194,12.5 L194,12.5 L194,12.5 C194,19.4035594 188.403559,25 181.5,25 L12.5,25 L12.5,25 C5.59644063,25 8.45442189e-16,19.4035594 0,12.5 L0,12.5 L0,12.5 C-8.45442189e-16,5.59644063 5.59644063,-5.08165558e-16 12.5,-1.77635684e-15 Z" id="Rectangle" fill-opacity="0.87" fill="#0D3754"></path>
                                        <circle id="Oval" fill="url(#linearGradient-1)" cx="183.5" cy="12.5" r="12.5"></circle>
                                    </g>
                                </g>
                            </g>
                        </g>
                    </g>
                </g>
            </g>
        </g>
    </g>
</svg>