<?xml version="1.0" encoding="UTF-8"?>
<svg width="25px" height="25px" viewBox="0 0 25 25" version="1.1" xmlns="http://www.w3.org/2000/svg" xmlns:xlink="http://www.w3.org/1999/xlink">
    <!-- Generator: Sketch 46.2 (44496) - http://www.bohemiancoding.com/sketch -->
    <title>groupby-count@1,5x</title>
    <desc>Created with Sketch.</desc>
    <defs>
        <linearGradient x1="100%" y1="0%" x2="0%" y2="100%" id="linearGradient-1">
            <stop stop-color="#FF6F6F" offset="0%"></stop>
            <stop stop-color="#FCA53E" offset="100%"></stop>
        </linearGradient>
    </defs>
    <g id="Design" stroke="none" stroke-width="1" fill="none" fill-rule="evenodd">
        <g id="01.-02.-Deze-week" transform="translate(-260.000000, -190.000000)" fill="url(#linearGradient-1)">
            <g id="CONTENT" transform="translate(0.000000, 128.000000)">
                <g id="Days" transform="translate(0.000000, 62.000000)">
                    <g id="Monday">
                        <g id="Day-indicator">
                            <g id="expanded" transform="translate(89.000000, 0.000000)">
                                <g id="Group-3">
                                    <g id="group-by-title">
                                        <g id="Group-4" transform="translate(171.000000, 0.000000)">
                                            <circle id="groupby-count" cx="12.5" cy="12.5" r="12.5"></circle>
                                        </g>
                                    </g>
                                </g>
                            </g>
                        </g>
                    </g>
                </g>
            </g>
        </g>
    </g>
</svg>