<?xml version="1.0" encoding="UTF-8"?>
<svg width="193px" height="15px" viewBox="0 0 193 15" version="1.1" xmlns="http://www.w3.org/2000/svg" xmlns:xlink="http://www.w3.org/1999/xlink">
    <!-- Generator: Sketch 48.2 (47327) - http://www.bohemiancoding.com/sketch -->
    <title>signature_pad@1,5x</title>
    <desc>Created with Sketch.</desc>
    <defs></defs>
    <g id="03.-05---Assignment-Aandrijden-Copy-2" stroke="none" stroke-width="1" fill="none" fill-rule="evenodd" transform="translate(-91.000000, -390.000000)" font-family="LucidaGrande-Bold, Lucida Grande" font-size="14" font-weight="bold">
        <g id="signature_pad" transform="translate(187.500000, 396.500000) rotate(45.000000) translate(-187.500000, -396.500000) translate(112.000000, 321.000000)" fill="#000000">
            <text id="Handtekening-van-de" transform="translate(75.500000, 75.500000) rotate(-45.000000) translate(-75.500000, -75.500000) ">
                <tspan x="-21.6523438" y="81">Handtekening van de klant</tspan>
            </text>
        </g>
    </g>
</svg>