{
  "components": [
    {
      "minPackageVersion": "1.135.0",
      "name": "RelatedWO - WorkOrderDetailsFHistory",
      "briefcaseRequirements": {
        "prefixed": "PREFIXED_WO_DETAILS_FHISTORY_BRI_REQ",
        "nonPrefixed": "NON_PREFIXED_WO_DETAILS_FHISTORY_BRI_REQ"
      },
      "componentToPlugin": {
        "prefixed": "PREFIXED_WO_DETAILS_FHISTORY",
        "nonPrefixed": "NON_PREFIXED_WO_DETAILS_FHISTORY"
      },
      "action": {
        "path": "config.tabsLayout.config",
        "method": "filter",
        "operator": "AND",
        "params": [
          {
            "paramA": "body.type",
            "operator": "===",
            "paramB": "FHistory"
          }
        ]
      },
      "app": "WorkOrders",
      "screen": "WorkOrderDetails"
    },
    {
      "minPackageVersion": "1.135.0",
      "name": "RelatedWO - MultiItemsFHistory",
      "briefcaseRequirements": {
        "prefixed": "PREFIXED_MULTI_ITEMS_FHISTORY_BRI_REQ",
        "nonPrefixed": "NON_PREFIXED_MULTI_ITEMS_FHISTORY_BRI_REQ"
      },
      "componentToPlugin": {
        "prefixed": "PREFIXED_MULTI_ITEMS_FHISTORY",
        "nonPrefixed": "NON_PREFIXED_MULTI_ITEMS_FHISTORY"
      },
      "action": {
        "path": "config.items",
        "method": "filter",
        "operator": "AND",
        "params": [
          {
            "paramA": "type",
            "operator": "===",
            "paramB": "FTabs"
          }
        ],
        "action": {
          "path": "config",
          "method": "filter",
          "operator": "AND",
          "params": [
            {
              "paramA": "body.type",
              "operator": "===",
              "paramB": "FHistory"
            }
          ]
        }
      },
      "app": "WorkOrders",
      "screen": "MultiItems"
    },
    {
      "minPackageVersion": "1.135.0",
      "name": "timeRegistration - TimeSheetInsertEditScreen",
      "briefcaseRequirements": {
        "prefixed": "PREFIXED_TIMESHEETINSERTEDIT_BRI_REQ",
        "nonPrefixed": "NON_PREFIXED_TIMESHEETINSERTEDIT_BRI_REQ"
      },
      "componentToPlugin": {
        "prefixed": "PREFIXED_TIMESHEETINSERTEDIT",
        "nonPrefixed": "NON_PREFIXED_TIMESHEETINSERTEDIT"
      },
      "action": {
        "path": "screens",
        "method": "filter",
        "operator": "AND",
        "params": [
          {
            "paramA": "name",
            "operator": "===",
            "paramB": "TimeSheetInsertEditScreen"
          }
        ]
      },
      "app": "WorkOrders"
    },
    {
      "minPackageVersion": "1.135.0",
      "name": "timeRegistration - FTimeSheetDayToolbar",
      "briefcaseRequirements": {
        "prefixed": "PREFIXED_WO_DETAILS_FTIMESHEETDAYTOOLBAR_BRI_REQ",
        "nonPrefixed": "NON_PREFIXED_WO_DETAILS_FTIMESHEETDAYTOOLBAR_BRI_REQ"
      },
      "componentToPlugin": {
        "prefixed": "PREFIXED_WO_DETAILS_FTIMESHEETDAYTOOLBAR",
        "nonPrefixed": "NON_PREFIXED_WO_DETAILS_FTIMESHEETDAYTOOLBAR"
      },
      "action": {
        "path": "config.tabsLayout.config",
        "method": "replace",
        "operator": "AND",
        "params": [
          {
            "paramA": "body.type",
            "operator": "===",
            "paramB": "FTimesheetLineItems"
          }
        ]
      },
      "app": "WorkOrders",
      "screen": "WorkOrderDetails"
    }
  ]
}